Mini Project 1 – Netflix Top 10 – STA 9750 Submission Material
…
Task 3: Data Import & Interpretation

Code

COUNTRY_TOP_10

# A tibble: 411,760 × 8
   country_name country_iso2 week       category weekly_rank show_title         
   <chr>        <chr>        <date>     <chr>          <dbl> <chr>              
 1 Argentina    AR           2025-09-21 Films              1 The Mule           
 2 Argentina    AR           2025-09-21 Films              2 The Wrong Paris    
 3 Argentina    AR           2025-09-21 Films              3 KPop Demon Hunters 
 4 Argentina    AR           2025-09-21 Films              4 She Said Maybe     
 5 Argentina    AR           2025-09-21 Films              5 War Dogs           
 6 Argentina    AR           2025-09-21 Films              6 Sonic the Hedgehog…
 7 Argentina    AR           2025-09-21 Films              7 Ocean's 8          
 8 Argentina    AR           2025-09-21 Films              8 Into the Wild      
 9 Argentina    AR           2025-09-21 Films              9 Fall for Me        
10 Argentina    AR           2025-09-21 Films             10 A Bright Lawyer    
# ℹ 411,750 more rows
# ℹ 2 more variables: season_title <chr>, cumulative_weeks_in_top_10 <dbl>

Code

GLOBAL_TOP_10

# A tibble: 8,840 × 10
   week       category   weekly_rank show_title season_title weekly_hours_viewed
   <date>     <chr>            <dbl> <chr>      <chr>                      <dbl>
 1 2025-09-21 Films (En…           1 The Wrong… <NA>                    38900000
 2 2025-09-21 Films (En…           2 KPop Demo… <NA>                    35400000
 3 2025-09-21 Films (En…           3 Ice Road:… <NA>                    14400000
 4 2025-09-21 Films (En…           4 aka Charl… aka Charlie…            21800000
 5 2025-09-21 Films (En…           5 The Mule   <NA>                    10900000
 6 2025-09-21 Films (En…           6 Unknown N… <NA>                     7100000
 7 2025-09-21 Films (En…           7 The Thurs… <NA>                     7800000
 8 2025-09-21 Films (En…           8 Sonic the… <NA>                     6300000
 9 2025-09-21 Films (En…           9 War Dogs   <NA>                     5800000
10 2025-09-21 Films (En…          10 Terror Co… <NA>                     4000000
# ℹ 8,830 more rows
# ℹ 4 more variables: runtime <dbl>, weekly_views <dbl>,
#   cumulative_weeks_in_top_10 <dbl>, runtime_minutes <dbl>
…
Films that reached #1 but did not debut at the #1 spot (List below):

Code

us <- COUNTRY_TOP_10 %>% filter(country_name == "United States", str_detect(category, "Film"))
debuts <- us %>% arrange(week) %>% group_by(show_title) %>% slice(1) %>% select(show_title, debut_rank = weekly_rank)
ever_number1 <- us %>% group_by(show_title) %>% summarise(ever1 = any(weekly_rank == 1))
left_join(debuts, ever_number1, by = "show_title") %>%
  filter(debut_rank > 1, ever1)

# A tibble: 45 × 3
# Groups:   show_title [45]
   show_title      debut_rank ever1
   <chr>                <dbl> <lgl>
 1 Aftermath                4 TRUE 
 2 American Made            9 TRUE 
 3 Blood Red Sky            5 TRUE 
 4 Bullet Train             2 TRUE 
 5 Day Shift                2 TRUE 
 6 Despicable Me 2          2 TRUE 
 7 Despicable Me 4          2 TRUE 
 8 Dog Gone                 4 TRUE 
 9 Don't Move               3 TRUE 
10 End of the Road          2 TRUE 
# ℹ 35 more rows
…
